\relax 
\providecommand\hyper@newdestlabel[2]{}
\@writefile{toc}{\contentsline {chapter}{Glossary}{7}{appendix*.8}}
\newlabel{glossary}{{1.5}{7}{Glossary}{appendix*.8}{}}
\@setckpt{glossary/glossary}{
\setcounter{page}{8}
\setcounter{equation}{0}
\setcounter{enumi}{3}
\setcounter{enumii}{0}
\setcounter{enumiii}{0}
\setcounter{enumiv}{0}
\setcounter{footnote}{2}
\setcounter{mpfootnote}{0}
\setcounter{part}{0}
\setcounter{chapter}{0}
\setcounter{section}{0}
\setcounter{subsection}{0}
\setcounter{subsubsection}{0}
\setcounter{paragraph}{0}
\setcounter{subparagraph}{0}
\setcounter{figure}{0}
\setcounter{table}{0}
\setcounter{parentequation}{0}
\setcounter{ContinuedFloat}{0}
\setcounter{EM@itemctr}{0}
\setcounter{EM@etaremunectr}{0}
\setcounter{pp@next@reset}{0}
\setcounter{Item}{3}
\setcounter{Hfootnote}{2}
\setcounter{bookmark@seq@number}{16}
\setcounter{DefaultLines}{2}
\setcounter{DefaultDepth}{0}
\setcounter{L@lines}{3}
\setcounter{L@depth}{0}
\setcounter{NAT@ctr}{0}
\setcounter{section@level}{0}
}
